…
We pipe the entire ***Class.1.Train.Tib*** to a ***select*** function and then use the ***apply*** operation to execute ***find_lambda*** on every row of ***Class.1.Train*** tib.  Although each iteration (application) of ***find_lambda*** inputs the entire ***Tibble*** of ***Class.2.Train.Tin***, it returns a single value for lambda.

> NOTE:  The ***MagrittR*** ***%<>%*** operation pipes data forward and stores the final result of all chained operations back into initial variable

The following output tibble depicts what ***Class.1.Train.Tib*** looks like after application of ***find_lambda***.

```R
> Class.1.Train.Tib
# A tibble: 72 x 5
   alkphos  sgpt gammagt lambda    id
     <dbl> <dbl>   <dbl>  <dbl> <int>
 1      67    77     114  29.1    175
 2      71    29      52  10.5    176
 3      93    22     123  19.4    182
 4      77    86      31  26.8    183
 5      77    39     108  20.4    189
 6      83    81     201  58.3    190
 7      75    25      14   3.16   191
 8      56    23      12   6.48   192
 9      91    27      15   7.87   194
10      62    17       5   5.00   195
# ... with 62 more rows
```
…
